<?xml version="1.0" encoding="UTF-8" standalone="no"?>
<!-- Created with Inkscape (http://www.inkscape.org/) -->

<svg
   xmlns:dc="http://purl.org/dc/elements/1.1/"
   xmlns:cc="http://creativecommons.org/ns#"
   xmlns:rdf="http://www.w3.org/1999/02/22-rdf-syntax-ns#"
   xmlns:svg="http://www.w3.org/2000/svg"
   xmlns="http://www.w3.org/2000/svg"
   xmlns:sodipodi="http://sodipodi.sourceforge.net/DTD/sodipodi-0.dtd"
   xmlns:inkscape="http://www.inkscape.org/namespaces/inkscape"
   version="1.1"
   width="540"
   height="385"
   viewBox="0 0 540.67586 384"
   id="svg2"
   xml:space="preserve"
   style="fill-rule:evenodd"
   inkscape:version="0.91 r13725"
   sodipodi:docname="WorkingsAltGr.svg"
   inkscape:export-filename="C:\Users\Dugzor\Dropbox\Coding Workspace\My Projects\KeyboardTweaks\LayoutAltGr.png"
   inkscape:export-xdpi="600"
   inkscape:export-ydpi="600"><sodipodi:namedview
     pagecolor="#ffffff"
     bordercolor="#666666"
     borderopacity="1"
     objecttolerance="10"
     gridtolerance="10"
     guidetolerance="10"
     inkscape:pageopacity="0"
     inkscape:pageshadow="2"
     inkscape:window-width="1600"
     inkscape:window-height="847"
     id="namedview484"
     showgrid="false"
     inkscape:zoom="2.8284272"
     inkscape:cx="246.11203"
     inkscape:cy="135.40897"
     inkscape:window-x="-8"
     inkscape:window-y="-8"
     inkscape:window-maximized="1"
     inkscape:current-layer="svg2"
     showguides="false"
     inkscape:guide-bbox="true"
     inkscape:object-paths="true"><sodipodi:guide
       position="-60.887292,349.59359"
       orientation="0,1"
       id="guide16778" /><sodipodi:guide
       position="-59.648307,328.87628"
       orientation="0,1"
       id="guide16780" /><sodipodi:guide
       position="151.10294,319.77662"
       orientation="0,1"
       id="guide16911" /><sodipodi:guide
       position="152.06508,313.29351"
       orientation="0,1"
       id="guide16913" /></sodipodi:namedview><metadata
     id="metadata872"><rdf:RDF><cc:Work
         rdf:about=""><dc:format>image/svg+xml</dc:format><dc:type
           rdf:resource="http://purl.org/dc/dcmitype/StillImage" /><dc:title /></cc:Work></rdf:RDF></metadata><defs
     id="defs4"><marker
       refX="0"
       refY="0"
       orient="auto"
       id="TriangleOutM"
       style="overflow:visible"><path
         d="m 5.77,0 -8.65,5 0,-10 8.65,5 z"
         transform="scale(0.4,0.4)"
         id="path4359"
         style="fill-rule:evenodd;stroke:#000000;stroke-width:1pt;marker-start:none"
         inkscape:connector-curvature="0" /></marker><marker
       refX="0"
       refY="0"
       orient="auto"
       id="TriangleOutS"
       style="overflow:visible"><path
         d="m 5.77,0 -8.65,5 0,-10 8.65,5 z"
         transform="scale(0.2,0.2)"
         id="path4362"
         style="fill-rule:evenodd;stroke:#000000;stroke-width:1pt;marker-start:none"
         inkscape:connector-curvature="0" /></marker><marker
       refX="0"
       refY="0"
       orient="auto"
       id="TriangleOutL"
       style="overflow:visible"><path
         d="m 5.77,0 -8.65,5 0,-10 8.65,5 z"
         transform="scale(0.8,0.8)"
         id="path4356"
         style="fill-rule:evenodd;stroke:#000000;stroke-width:1pt;marker-start:none"
         inkscape:connector-curvature="0" /></marker><marker
       refX="0"
       refY="0"
       orient="auto"
       id="Arrow1Lend"
       style="overflow:visible"><path
         d="M 0,0 5,-5 -12.5,0 5,5 0,0 Z"
         transform="matrix(-0.8,0,0,-0.8,-10,0)"
         id="path4216"
         style="fill-rule:evenodd;stroke:#000000;stroke-width:1pt;marker-start:none"
         inkscape:connector-curvature="0" /></marker><marker
       refX="0"
       refY="0"
       orient="auto"
       id="Arrow2Lend"
       style="overflow:visible"><path
         d="M 8.7185878,4.0337352 -2.2072895,0.01601326 8.7185884,-4.0017078 c -1.7454984,2.3720609 -1.7354408,5.6174519 -6e-7,8.035443 z"
         transform="matrix(-1.1,0,0,-1.1,-1.1,0)"
         id="path4234"
         style="font-size:12px;fill-rule:evenodd;stroke-width:0.625;stroke-linejoin:round"
         inkscape:connector-curvature="0" /></marker><marker
       refX="0"
       refY="0"
       orient="auto"
       id="Arrow2Lstart"
       style="overflow:visible"><path
         d="M 8.7185878,4.0337352 -2.2072895,0.01601326 8.7185884,-4.0017078 c -1.7454984,2.3720609 -1.7354408,5.6174519 -6e-7,8.035443 z"
         transform="matrix(1.1,0,0,1.1,1.1,0)"
         id="path4231"
         style="font-size:12px;fill-rule:evenodd;stroke-width:0.625;stroke-linejoin:round"
         inkscape:connector-curvature="0" /></marker><style
       type="text/css"
       id="style6" /><marker
       refX="0"
       refY="0"
       orient="auto"
       id="TriangleOutSU"
       style="overflow:visible"><path
         d="m 5.77,0 -8.65,5 0,-10 8.65,5 z"
         transform="scale(0.2,0.2)"
         id="path5625"
         style="fill:#2b2828;fill-rule:evenodd;stroke:#2b2828;stroke-width:1pt;marker-start:none"
         inkscape:connector-curvature="0" /></marker><marker
       refX="0"
       refY="0"
       orient="auto"
       id="TriangleOutSU-2"
       style="overflow:visible"><path
         d="m 5.77,0 -8.65,5 0,-10 8.65,5 z"
         transform="scale(0.2,0.2)"
         id="path5625-2"
         style="fill:#2b2828;fill-rule:evenodd;stroke:#2b2828;stroke-width:1pt;marker-start:none"
         inkscape:connector-curvature="0" /></marker><marker
       refX="0"
       refY="0"
       orient="auto"
       id="TriangleOutSI"
       style="overflow:visible"><path
         d="m 5.77,0 -8.65,5 0,-10 8.65,5 z"
         transform="scale(0.2,0.2)"
         id="path6762"
         style="fill:#2b2828;fill-rule:evenodd;stroke:#2b2828;stroke-width:1pt;marker-start:none"
         inkscape:connector-curvature="0" /></marker><marker
       refX="0"
       refY="0"
       orient="auto"
       id="TriangleOutMu"
       style="overflow:visible"><path
         d="m 5.77,0 -8.65,5 0,-10 8.65,5 z"
         transform="scale(0.4,0.4)"
         id="path10716"
         style="fill:#2b2828;fill-rule:evenodd;stroke:#2b2828;stroke-width:1pt;marker-start:none"
         inkscape:connector-curvature="0" /></marker><marker
       refX="0"
       refY="0"
       orient="auto"
       id="TriangleOutMY"
       style="overflow:visible"><path
         d="m 5.77,0 -8.65,5 0,-10 8.65,5 z"
         transform="scale(0.4,0.4)"
         id="path10719"
         style="fill:#2b2828;fill-rule:evenodd;stroke:#2b2828;stroke-width:1pt;marker-start:none"
         inkscape:connector-curvature="0" /></marker><marker
       refX="0"
       refY="0"
       orient="auto"
       id="TriangleOutM1"
       style="overflow:visible"><path
         d="m 5.77,0 -8.65,5 0,-10 8.65,5 z"
         transform="scale(0.4,0.4)"
         id="path11856"
         style="fill:#2b2828;fill-rule:evenodd;stroke:#2b2828;stroke-width:1pt;marker-start:none"
         inkscape:connector-curvature="0" /></marker><marker
       refX="0"
       refY="0"
       orient="auto"
       id="TriangleOutM1-2"
       style="overflow:visible"><path
         d="m 5.77,0 -8.65,5 0,-10 8.65,5 z"
         transform="scale(0.4,0.4)"
         id="path11856-5"
         style="fill:#2b2828;fill-rule:evenodd;stroke:#2b2828;stroke-width:1pt;marker-start:none"
         inkscape:connector-curvature="0" /></marker><marker
       refX="0"
       refY="0"
       orient="auto"
       id="TriangleOutM1-6"
       style="overflow:visible"><path
         d="m 5.77,0 -8.65,5 0,-10 8.65,5 z"
         transform="scale(0.4,0.4)"
         id="path11856-54"
         style="fill:#2b2828;fill-rule:evenodd;stroke:#2b2828;stroke-width:1pt;marker-start:none"
         inkscape:connector-curvature="0" /></marker><marker
       refX="0"
       refY="0"
       orient="auto"
       id="TriangleOutM1-4"
       style="overflow:visible"><path
         d="m 5.77,0 -8.65,5 0,-10 8.65,5 z"
         transform="scale(0.4,0.4)"
         id="path11856-9"
         style="fill:#2b2828;fill-rule:evenodd;stroke:#2b2828;stroke-width:1pt;marker-start:none"
         inkscape:connector-curvature="0" /></marker><marker
       refX="0"
       refY="0"
       orient="auto"
       id="TriangleOutM1-1"
       style="overflow:visible"><path
         d="m 5.77,0 -8.65,5 0,-10 8.65,5 z"
         transform="scale(0.4,0.4)"
         id="path11856-97"
         style="fill:#2b2828;fill-rule:evenodd;stroke:#2b2828;stroke-width:1pt;marker-start:none"
         inkscape:connector-curvature="0" /></marker><marker
       refX="0"
       refY="0"
       orient="auto"
       id="TriangleOutM1-64"
       style="overflow:visible"><path
         d="m 5.77,0 -8.65,5 0,-10 8.65,5 z"
         transform="scale(0.4,0.4)"
         id="path11856-3"
         style="fill:#2b2828;fill-rule:evenodd;stroke:#2b2828;stroke-width:1pt;marker-start:none"
         inkscape:connector-curvature="0" /></marker><marker
       refX="0"
       refY="0"
       orient="auto"
       id="TriangleOutM1-5"
       style="overflow:visible"><path
         d="m 5.77,0 -8.65,5 0,-10 8.65,5 z"
         transform="scale(0.4,0.4)"
         id="path11856-55"
         style="fill:#2b2828;fill-rule:evenodd;stroke:#2b2828;stroke-width:1pt;marker-start:none"
         inkscape:connector-curvature="0" /></marker><marker
       refX="0"
       refY="0"
       orient="auto"
       id="TriangleOutM1-9"
       style="overflow:visible"><path
         d="m 5.77,0 -8.65,5 0,-10 8.65,5 z"
         transform="scale(0.4,0.4)"
         id="path11856-0"
         style="fill:#2b2828;fill-rule:evenodd;stroke:#2b2828;stroke-width:1pt;marker-start:none"
         inkscape:connector-curvature="0" /></marker><marker
       refX="0"
       refY="0"
       orient="auto"
       id="TriangleOutM1-17"
       style="overflow:visible"><path
         d="m 5.77,0 -8.65,5 0,-10 8.65,5 z"
         transform="scale(0.4,0.4)"
         id="path11856-4"
         style="fill:#2b2828;fill-rule:evenodd;stroke:#2b2828;stroke-width:1pt;marker-start:none"
         inkscape:connector-curvature="0" /></marker><marker
       refX="0"
       refY="0"
       orient="auto"
       id="TriangleOutMF"
       style="overflow:visible"><path
         d="m 5.77,0 -8.65,5 0,-10 8.65,5 z"
         transform="scale(0.4,0.4)"
         id="path3528"
         style="fill:#2b2828;fill-rule:evenodd;stroke:#2b2828;stroke-width:1pt;marker-start:none"
         inkscape:connector-curvature="0" /></marker><marker
       refX="0"
       refY="0"
       orient="auto"
       id="TriangleOutM1-47"
       style="overflow:visible"><path
         inkscape:connector-curvature="0"
         d="m 5.77,0 -8.65,5 0,-10 8.65,5 z"
         transform="scale(0.4,0.4)"
         id="path11856-34"
         style="fill:#2b2828;fill-rule:evenodd;stroke:#2b2828;stroke-width:1pt;marker-start:none" /></marker><marker
       refX="0"
       refY="0"
       orient="auto"
       id="marker9061"
       style="overflow:visible"><path
         inkscape:connector-curvature="0"
         d="m 5.77,0 -8.65,5 0,-10 8.65,5 z"
         transform="scale(0.4,0.4)"
         id="path9063"
         style="fill:#2b2828;fill-rule:evenodd;stroke:#2b2828;stroke-width:1pt;marker-start:none" /></marker><marker
       refX="0"
       refY="0"
       orient="auto"
       id="marker9065"
       style="overflow:visible"><path
         inkscape:connector-curvature="0"
         d="m 5.77,0 -8.65,5 0,-10 8.65,5 z"
         transform="scale(0.4,0.4)"
         id="path9067"
         style="fill:#2b2828;fill-rule:evenodd;stroke:#2b2828;stroke-width:1pt;marker-start:none" /></marker><marker
       refX="0"
       refY="0"
       orient="auto"
       id="marker9069"
       style="overflow:visible"><path
         inkscape:connector-curvature="0"
         d="m 5.77,0 -8.65,5 0,-10 8.65,5 z"
         transform="scale(0.4,0.4)"
         id="path9071"
         style="fill:#2b2828;fill-rule:evenodd;stroke:#2b2828;stroke-width:1pt;marker-start:none" /></marker><marker
       refX="0"
       refY="0"
       orient="auto"
       id="marker9073"
       style="overflow:visible"><path
         inkscape:connector-curvature="0"
         d="m 5.77,0 -8.65,5 0,-10 8.65,5 z"
         transform="scale(0.4,0.4)"
         id="path9075"
         style="fill:#2b2828;fill-rule:evenodd;stroke:#2b2828;stroke-width:1pt;marker-start:none" /></marker><marker
       refX="0"
       refY="0"
       orient="auto"
       id="marker9077"
       style="overflow:visible"><path
         inkscape:connector-curvature="0"
         d="m 5.77,0 -8.65,5 0,-10 8.65,5 z"
         transform="scale(0.4,0.4)"
         id="path9079"
         style="fill:#2b2828;fill-rule:evenodd;stroke:#2b2828;stroke-width:1pt;marker-start:none" /></marker><marker
       refX="0"
       refY="0"
       orient="auto"
       id="marker9081"
       style="overflow:visible"><path
         inkscape:connector-curvature="0"
         d="m 5.77,0 -8.65,5 0,-10 8.65,5 z"
         transform="scale(0.4,0.4)"
         id="path9083"
         style="fill:#2b2828;fill-rule:evenodd;stroke:#2b2828;stroke-width:1pt;marker-start:none" /></marker><marker
       refX="0"
       refY="0"
       orient="auto"
       id="marker9085"
       style="overflow:visible"><path
         inkscape:connector-curvature="0"
         d="m 5.77,0 -8.65,5 0,-10 8.65,5 z"
         transform="scale(0.4,0.4)"
         id="path9087"
         style="fill:#2b2828;fill-rule:evenodd;stroke:#2b2828;stroke-width:1pt;marker-start:none" /></marker><marker
       refX="0"
       refY="0"
       orient="auto"
       id="marker9089"
       style="overflow:visible"><path
         inkscape:connector-curvature="0"
         d="m 5.77,0 -8.65,5 0,-10 8.65,5 z"
         transform="scale(0.4,0.4)"
         id="path9091"
         style="fill:#2b2828;fill-rule:evenodd;stroke:#2b2828;stroke-width:1pt;marker-start:none" /></marker><marker
       refX="0"
       refY="0"
       orient="auto"
       id="TriangleOutMF-9"
       style="overflow:visible"><path
         inkscape:connector-curvature="0"
         d="m 5.77,0 -8.65,5 0,-10 8.65,5 z"
         transform="scale(0.4,0.4)"
         id="path3528-1"
         style="fill:#2b2828;fill-rule:evenodd;stroke:#2b2828;stroke-width:1pt;marker-start:none" /></marker><marker
       refX="0"
       refY="0"
       orient="auto"
       id="TriangleOutMY-2"
       style="overflow:visible"><path
         inkscape:connector-curvature="0"
         d="m 5.77,0 -8.65,5 0,-10 8.65,5 z"
         transform="scale(0.4,0.4)"
         id="path10719-9"
         style="fill:#2b2828;fill-rule:evenodd;stroke:#2b2828;stroke-width:1pt;marker-start:none" /></marker><marker
       refX="0"
       refY="0"
       orient="auto"
       id="TriangleOutMu-4"
       style="overflow:visible"><path
         inkscape:connector-curvature="0"
         d="m 5.77,0 -8.65,5 0,-10 8.65,5 z"
         transform="scale(0.4,0.4)"
         id="path10716-9"
         style="fill:#2b2828;fill-rule:evenodd;stroke:#2b2828;stroke-width:1pt;marker-start:none" /></marker><marker
       refX="0"
       refY="0"
       orient="auto"
       id="TriangleOutM1-0"
       style="overflow:visible"><path
         inkscape:connector-curvature="0"
         d="m 5.77,0 -8.65,5 0,-10 8.65,5 z"
         transform="scale(0.4,0.4)"
         id="path11856-2"
         style="fill:#2b2828;fill-rule:evenodd;stroke:#2b2828;stroke-width:1pt;marker-start:none" /></marker><marker
       refX="0"
       refY="0"
       orient="auto"
       id="TriangleOutM1-58"
       style="overflow:visible"><path
         inkscape:connector-curvature="0"
         d="m 5.77,0 -8.65,5 0,-10 8.65,5 z"
         transform="scale(0.4,0.4)"
         id="path11856-01"
         style="fill:#2b2828;fill-rule:evenodd;stroke:#2b2828;stroke-width:1pt;marker-start:none" /></marker><marker
       refX="0"
       refY="0"
       orient="auto"
       id="TriangleOutM1-8"
       style="overflow:visible"><path
         inkscape:connector-curvature="0"
         d="m 5.77,0 -8.65,5 0,-10 8.65,5 z"
         transform="scale(0.4,0.4)"
         id="path11856-43"
         style="fill:#2b2828;fill-rule:evenodd;stroke:#2b2828;stroke-width:1pt;marker-start:none" /></marker><marker
       refX="0"
       refY="0"
       orient="auto"
       id="TriangleOutM1-3"
       style="overflow:visible"><path
         inkscape:connector-curvature="0"
         d="m 5.77,0 -8.65,5 0,-10 8.65,5 z"
         transform="scale(0.4,0.4)"
         id="path11856-95"
         style="fill:#2b2828;fill-rule:evenodd;stroke:#2b2828;stroke-width:1pt;marker-start:none" /></marker><marker
       refX="0"
       refY="0"
       orient="auto"
       id="TriangleOutM1-63"
       style="overflow:visible"><path
         inkscape:connector-curvature="0"
         d="m 5.77,0 -8.65,5 0,-10 8.65,5 z"
         transform="scale(0.4,0.4)"
         id="path11856-92"
         style="fill:#2b2828;fill-rule:evenodd;stroke:#2b2828;stroke-width:1pt;marker-start:none" /></marker><marker
       refX="0"
       refY="0"
       orient="auto"
       id="TriangleOutM1-08"
       style="overflow:visible"><path
         inkscape:connector-curvature="0"
         d="m 5.77,0 -8.65,5 0,-10 8.65,5 z"
         transform="scale(0.4,0.4)"
         id="path11856-1"
         style="fill:#2b2828;fill-rule:evenodd;stroke:#2b2828;stroke-width:1pt;marker-start:none" /></marker><marker
       refX="0"
       refY="0"
       orient="auto"
       id="TriangleOutM1-3-5"
       style="overflow:visible"><path
         inkscape:connector-curvature="0"
         d="m 5.77,0 -8.65,5 0,-10 8.65,5 z"
         transform="scale(0.4,0.4)"
         id="path11856-95-6"
         style="fill:#2b2828;fill-rule:evenodd;stroke:#2b2828;stroke-width:1pt;marker-start:none" /></marker><marker
       refX="0"
       refY="0"
       orient="auto"
       id="TriangleOutM1-3-5-6"
       style="overflow:visible"><path
         inkscape:connector-curvature="0"
         d="m 5.77,0 -8.65,5 0,-10 8.65,5 z"
         transform="scale(0.4,0.4)"
         id="path11856-95-6-6"
         style="fill:#2b2828;fill-rule:evenodd;stroke:#2b2828;stroke-width:1pt;marker-start:none" /></marker><marker
       refX="0"
       refY="0"
       orient="auto"
       id="TriangleOutM1-3-5-9"
       style="overflow:visible"><path
         inkscape:connector-curvature="0"
         d="m 5.77,0 -8.65,5 0,-10 8.65,5 z"
         transform="scale(0.4,0.4)"
         id="path11856-95-6-5"
         style="fill:#2b2828;fill-rule:evenodd;stroke:#2b2828;stroke-width:1pt;marker-start:none" /></marker><marker
       refX="0"
       refY="0"
       orient="auto"
       id="TriangleOutM1-3-5-1"
       style="overflow:visible"><path
         inkscape:connector-curvature="0"
         d="m 5.77,0 -8.65,5 0,-10 8.65,5 z"
         transform="scale(0.4,0.4)"
         id="path11856-95-6-8"
         style="fill:#2b2828;fill-rule:evenodd;stroke:#2b2828;stroke-width:1pt;marker-start:none" /></marker><marker
       refX="0"
       refY="0"
       orient="auto"
       id="TriangleOutM1-3-5-0"
       style="overflow:visible"><path
         inkscape:connector-curvature="0"
         d="m 5.77,0 -8.65,5 0,-10 8.65,5 z"
         transform="scale(0.4,0.4)"
         id="path11856-95-6-7"
         style="fill:#2b2828;fill-rule:evenodd;stroke:#2b2828;stroke-width:1pt;marker-start:none" /></marker><marker
       refX="0"
       refY="0"
       orient="auto"
       id="TriangleOutM1-3-0"
       style="overflow:visible"><path
         inkscape:connector-curvature="0"
         d="m 5.77,0 -8.65,5 0,-10 8.65,5 z"
         transform="scale(0.4,0.4)"
         id="path11856-95-9"
         style="fill:#2b2828;fill-rule:evenodd;stroke:#2b2828;stroke-width:1pt;marker-start:none" /></marker><marker
       refX="0"
       refY="0"
       orient="auto"
       id="TriangleOutM1-3-0-6"
       style="overflow:visible"><path
         inkscape:connector-curvature="0"
         d="m 5.77,0 -8.65,5 0,-10 8.65,5 z"
         transform="scale(0.4,0.4)"
         id="path11856-95-9-9"
         style="fill:#2b2828;fill-rule:evenodd;stroke:#2b2828;stroke-width:1pt;marker-start:none" /></marker><marker
       refX="0"
       refY="0"
       orient="auto"
       id="TriangleOutM1-3-0-7"
       style="overflow:visible"><path
         inkscape:connector-curvature="0"
         d="m 5.77,0 -8.65,5 0,-10 8.65,5 z"
         transform="scale(0.4,0.4)"
         id="path11856-95-9-6"
         style="fill:#2b2828;fill-rule:evenodd;stroke:#2b2828;stroke-width:1pt;marker-start:none" /></marker><marker
       refX="0"
       refY="0"
       orient="auto"
       id="TriangleOutM1-3-0-0"
       style="overflow:visible"><path
         inkscape:connector-curvature="0"
         d="m 5.77,0 -8.65,5 0,-10 8.65,5 z"
         transform="scale(0.4,0.4)"
         id="path11856-95-9-67"
         style="fill:#2b2828;fill-rule:evenodd;stroke:#2b2828;stroke-width:1pt;marker-start:none" /></marker><marker
       refX="0"
       refY="0"
       orient="auto"
       id="TriangleOutM1-3-0-6-5"
       style="overflow:visible"><path
         inkscape:connector-curvature="0"
         d="m 5.77,0 -8.65,5 0,-10 8.65,5 z"
         transform="scale(0.4,0.4)"
         id="path11856-95-9-9-2"
         style="fill:#2b2828;fill-rule:evenodd;stroke:#2b2828;stroke-width:1pt;marker-start:none" /></marker></defs><path
     style="fill:#f5f6f7;stroke:#202326;stroke-width:0"
     d="m 51.977762,33.821265 438.056378,0 c 7.8117,0 13.82071,7.494398 13.82071,18.319638 l 0,159.880477 c 0,9.99253 -6.00901,19.15235 -13.82071,19.15235 l -438.056378,0 c -8.412605,0 -15.022509,-9.15982 -15.022509,-19.15235 l 0,-159.880477 c 0,-10.82524 6.609904,-18.319638 15.022509,-18.319638 z"
     id="path9"
     inkscape:connector-curvature="0" /><path
     style="fill:#97c5d5;stroke:#202326;stroke-width:0;fill-opacity:1"
     d="m 53.007509,93.997497 20,0 c 1,0 3,1 3,3 l 0,17.000003 c 0,2 -2,3 -3,3 l -20,0 c -2,0 -3,-1 -3,-3 l 0,-17.000003 c 0,-2 1,-3 3,-3 z"
     id="path11"
     inkscape:connector-curvature="0" /><path
     style="fill:#97c5d5;fill-opacity:1;stroke:#202326;stroke-width:0"
     d="m 83.007509,93.997497 20.000001,0 c 1.99999,0 2.99999,1 2.99999,3 l 0,17.000003 c 0,2 -1,3 -2.99999,3 l -20.000001,0 c -2,0 -3,-1 -3,-3 l 0,-17.000003 c 0,-2 1,-3 3,-3 z"
     id="path13"
     inkscape:connector-curvature="0" /><path
     style="fill:#97c5d5;fill-opacity:1;stroke:#202326;stroke-width:0"
     d="m 112.0075,93.997497 20,0 c 2,0 3,1 3,3 l 0,17.000003 c 0,2 -1,3 -3,3 l -20,0 c -1,0 -2,-1 -2,-3 l 0,-17.000003 c 0,-2 1,-3 2,-3 z"
     id="path15"
     inkscape:connector-curvature="0" /><path
     style="fill:#97c5d5;fill-opacity:1;stroke:#202326;stroke-width:0"
     d="m 142.0075,93.997497 20,0 c 2,0 3,1 3,3 l 0,17.000003 c 0,2 -1,3 -3,3 l -20,0 c -2,0 -3,-1 -3,-3 l 0,-17.000003 c 0,-2 1,-3 3,-3 z"
     id="path17"
     inkscape:connector-curvature="0" /><path
     style="fill:#97c5d5;fill-opacity:1;stroke:#202326;stroke-width:0"
     d="m 172.0075,93.997497 20,0 c 2,0 3,1 3,3 l 0,17.000003 c 0,2 -1,3 -3,3 l -20,0 c -1,0 -3,-1 -3,-3 l 0,-17.000003 c 0,-2 2,-3 3,-3 z"
     id="path19"
     inkscape:connector-curvature="0" /><path
     style="fill:#97c5d5;fill-opacity:1;stroke:#202326;stroke-width:0"
     d="m 202.0075,93.997497 19,0 c 2,0 3,1 3,3 l 0,17.000003 c 0,2 -1,3 -3,3 l -19,0 c -1,0 -3,-1 -3,-3 l 0,-17.000003 c 0,-2 2,-3 3,-3 z"
     id="path21"
     inkscape:connector-curvature="0" /><path
     style="fill:#97c5d5;fill-opacity:1;stroke:#202326;stroke-width:0"
     d="m 231.0075,93.997497 20,0 c 2,0 3,1 3,3 l 0,17.000003 c 0,2 -1,3 -3,3 l -20,0 c -1,0 -3,-1 -3,-3 l 0,-17.000003 c 0,-2 2,-3 3,-3 z"
     id="path23"
     inkscape:connector-curvature="0" /><path
     style="fill:#97c5d5;fill-opacity:1;stroke:#202326;stroke-width:0"
     d="m 261.0075,93.997497 20,0 c 2,0 3,1 3,3 l 0,17.000003 c 0,2 -1,3 -3,3 l -20,0 c -1,0 -3,-1 -3,-3 l 0,-17.000003 c 0,-2 2,-3 3,-3 z"
     id="path25"
     inkscape:connector-curvature="0" /><path
     style="fill:#97c5d5;fill-opacity:1;stroke:#202326;stroke-width:0"
     d="m 291.0075,93.997497 19,0 c 2,0 3,1 3,3 l 0,17.000003 c 0,2 -1,3 -3,3 l -19,0 c -1,0 -3,-1 -3,-3 l 0,-17.000003 c 0,-2 2,-3 3,-3 z"
     id="path27"
     inkscape:connector-curvature="0" /><path
     style="fill:#97c5d5;fill-opacity:1;stroke:#202326;stroke-width:0"
     d="m 320.0075,93.997497 20,0 c 2,0 3,1 3,3 l 0,17.000003 c 0,2 -1,3 -3,3 l -20,0 c -1,0 -3,-1 -3,-3 l 0,-17.000003 c 0,-2 2,-3 3,-3 z"
     id="path29"
     inkscape:connector-curvature="0" /><path
     style="fill:#97c5d5;fill-opacity:1;stroke:#202326;stroke-width:0"
     d="m 350.0075,93.997497 20,0 c 2,0 3,1 3,3 l 0,17.000003 c 0,2 -1,3 -3,3 l -20,0 c -1,0 -3,-1 -3,-3 l 0,-17.000003 c 0,-2 2,-3 3,-3 z"
     id="path31"
     inkscape:connector-curvature="0" /><path
     style="fill:#97c5d5;fill-opacity:1;stroke:#202326;stroke-width:0"
     d="m 380.0075,93.997497 20,0 c 1,0 2,1 2,3 l 0,17.000003 c 0,2 -1,3 -2,3 l -20,0 c -1,0 -3,-1 -3,-3 l 0,-17.000003 c 0,-2 2,-3 3,-3 z"
     id="path33"
     inkscape:connector-curvature="0" /><path
     style="fill:#97c5d5;fill-opacity:1;stroke:#202326;stroke-width:0"
     d="m 409.0075,93.997497 20,0 c 2,0 3,1 3,3 l 0,17.000003 c 0,2 -1,3 -3,3 l -20,0 c -1,0 -2,-1 -2,-3 l 0,-17.000003 c 0,-2 1,-3 2,-3 z"
     id="path35"
     inkscape:connector-curvature="0" /><path
     style="fill:#97c5d5;stroke:#202326;stroke-width:0"
     d="m 439.0075,93.997497 20,0 c 2,0 3,1 3,3 l 0,17.000003 c 0,2 -1,3 -3,3 l -20,0 c -1,0 -2,-1 -2,-3 l 0,-17.000003 c 0,-2 1,-3 2,-3 z"
     id="path37"
     inkscape:connector-curvature="0" /><path
     style="fill:#97c5d5;stroke:#202326;stroke-width:0;fill-opacity:1"
     d="m 469.0075,93.997497 20,0 c 2,0 3,1 3,3 l 0,17.000003 c 0,2 -1,3 -3,3 l -20,0 c -1,0 -2,-1 -2,-3 l 0,-17.000003 c 0,-2 1,-3 2,-3 z"
     id="path39"
     inkscape:connector-curvature="0" /><path
     style="fill:#97c5d5;fill-opacity:1;stroke:#202326;stroke-width:0"
     d="m 101.00751,118.9975 18.99999,0 c 2,0 3,1 3,3 l 0,18 c 0,1 -1,3 -3,3 l -18.99999,0 c -1,0 -3.000001,-2 -3.000001,-3 l 0,-18 c 0,-2 2.000001,-3 3.000001,-3 z"
     id="path41"
     inkscape:connector-curvature="0" /><path
     style="fill:#97c5d5;fill-opacity:1;stroke:#202326;stroke-width:0"
     d="m 130.0075,118.9975 20,0 c 2,0 3,1 3,3 l 0,18 c 0,1 -1,3 -3,3 l -20,0 c -1,0 -3,-2 -3,-3 l 0,-18 c 0,-2 2,-3 3,-3 z"
     id="path43"
     inkscape:connector-curvature="0" /><path
     style="fill:#97c5d5;stroke:#202326;stroke-width:0;fill-opacity:1"
     d="m 160.0075,118.9975 20,0 c 2,0 3,1 3,3 l 0,18 c 0,1 -1,3 -3,3 l -20,0 c -1,0 -3,-2 -3,-3 l 0,-18 c 0,-2 2,-3 3,-3 z"
     id="path45"
     inkscape:connector-curvature="0" /><path
     style="fill:#97c5d5;fill-opacity:1;stroke:#202326;stroke-width:0"
     d="m 190.0075,118.9975 19,0 c 2,0 3,1 3,3 l 0,18 c 0,1 -1,3 -3,3 l -19,0 c -1,0 -3,-2 -3,-3 l 0,-18 c 0,-2 2,-3 3,-3 z"
     id="path47"
     inkscape:connector-curvature="0" /><path
     style="fill:#97c5d5;stroke:#202326;stroke-width:0;fill-opacity:1"
     d="m 219.0075,118.9975 20,0 c 2,0 3,1 3,3 l 0,18 c 0,1 -1,3 -3,3 l -20,0 c -1,0 -2,-2 -2,-3 l 0,-18 c 0,-2 1,-3 2,-3 z"
     id="path49"
     inkscape:connector-curvature="0" /><path
     style="fill:#97c5d5;fill-opacity:1;stroke:#202326;stroke-width:0"
     d="m 249.0075,118.9975 20,0 c 2,0 3,1 3,3 l 0,18 c 0,1 -1,3 -3,3 l -20,0 c -1,0 -2,-2 -2,-3 l 0,-18 c 0,-2 1,-3 2,-3 z"
     id="path51"
     inkscape:connector-curvature="0" /><path
     style="fill:#97c5d5;fill-opacity:1;stroke:#202326;stroke-width:0"
     d="m 279.0075,118.9975 20,0 c 2,0 3,1 3,3 l 0,18 c 0,1 -1,3 -3,3 l -20,0 c -1,0 -2,-2 -2,-3 l 0,-18 c 0,-2 1,-3 2,-3 z"
     id="path53"
     inkscape:connector-curvature="0" /><path
     style="fill:#97c5d5;fill-opacity:1;stroke:#202326;stroke-width:0"
     d="m 308.0075,118.9975 20,0 c 2,0 3,1 3,3 l 0,18 c 0,1 -1,3 -3,3 l -20,0 c -1,0 -2,-2 -2,-3 l 0,-18 c 0,-2 1,-3 2,-3 z"
     id="path55"
     inkscape:connector-curvature="0" /><path
     style="fill:#97c5d5;fill-opacity:1;stroke:#202326;stroke-width:0"
     d="m 338.0075,118.9975 20,0 c 2,0 3,1 3,3 l 0,18 c 0,1 -1,3 -3,3 l -20,0 c -1,0 -2,-2 -2,-3 l 0,-18 c 0,-2 1,-3 2,-3 z"
     id="path57"
     inkscape:connector-curvature="0" /><path
     style="fill:#97c5d5;stroke:#202326;stroke-width:0;fill-opacity:1"
     d="m 368.0075,118.9975 20,0 c 2,0 3,1 3,3 l 0,18 c 0,1 -1,3 -3,3 l -20,0 c -1,0 -2,-2 -2,-3 l 0,-18 c 0,-2 1,-3 2,-3 z"
     id="path59"
     inkscape:connector-curvature="0" /><path
     style="fill:#97c5d5;stroke:#202326;stroke-width:0;fill-opacity:1"
     d="m 398.0075,118.9975 19,0 c 2,0 3,1 3,3 l 0,18 c 0,1 -1,3 -3,3 l -19,0 c -1,0 -2,-2 -2,-3 l 0,-18 c 0,-2 1,-3 2,-3 z"
     id="path61"
     inkscape:connector-curvature="0" /><path
     style="fill:#97c5d5;stroke:#202326;stroke-width:0"
     d="m 427.0075,118.9975 20,0 c 2,0 3,1 3,3 l 0,18 c 0,1 -1,3 -3,3 l -20,0 c -1,0 -2,-2 -2,-3 l 0,-18 c 0,-2 1,-3 2,-3 z"
     id="path63"
     inkscape:connector-curvature="0" /><path
     style="fill:#97c5d5;fill-opacity:1;stroke:#202326;stroke-width:0"
     d="m 109.0075,144.9975 19,0 c 1,0 3,1 3,2 l 0,19 c 0,1 -2,2 -3,2 l -19,0 c -2,0 -3,-1 -3,-2 l 0,-19 c 0,-1 1,-2 3,-2 z"
     id="path65"
     inkscape:connector-curvature="0" /><path
     style="fill:#97c5d5;fill-opacity:1;stroke:#202326;stroke-width:0"
     d="m 138.0075,144.9975 20,0 c 1,0 3,1 3,2 l 0,19 c 0,1 -2,2 -3,2 l -20,0 c -2,0 -3,-1 -3,-2 l 0,-19 c 0,-1 1,-2 3,-2 z"
     id="path67"
     inkscape:connector-curvature="0" /><path
     style="fill:#97c5d5;fill-opacity:1;stroke:#202326;stroke-width:0"
     d="m 168.0075,144.9975 20,0 c 2,0 3,1 3,2 l 0,19 c 0,1 -1,2 -3,2 l -20,0 c -2,0 -3,-1 -3,-2 l 0,-19 c 0,-1 1,-2 3,-2 z"
     id="path69"
     inkscape:connector-curvature="0" /><path
     style="fill:#97c5d5;fill-opacity:1;stroke:#202326;stroke-width:0"
     d="m 198.0075,144.9975 19,0 c 2,0 3,1 3,2 l 0,19 c 0,1 -1,2 -3,2 l -19,0 c -2,0 -3,-1 -3,-2 l 0,-19 c 0,-1 1,-2 3,-2 z"
     id="path71"
     inkscape:connector-curvature="0" /><path
     style="fill:#97c5d5;stroke:#202326;stroke-width:0;fill-opacity:1"
     d="m 227.0075,144.9975 20,0 c 2,0 3,1 3,2 l 0,19 c 0,1 -1,2 -3,2 l -20,0 c -2,0 -3,-1 -3,-2 l 0,-19 c 0,-1 1,-2 3,-2 z"
     id="path73"
     inkscape:connector-curvature="0" /><path
     style="fill:#97c5d5;fill-opacity:1;stroke:#202326;stroke-width:0"
     d="m 257.0075,144.9975 20,0 c 2,0 3,1 3,2 l 0,19 c 0,1 -1,2 -3,2 l -20,0 c -1,0 -3,-1 -3,-2 l 0,-19 c 0,-1 2,-2 3,-2 z"
     id="path75"
     inkscape:connector-curvature="0" /><path
     style="fill:#97c5d5;fill-opacity:1;stroke:#202326;stroke-width:0"
     d="m 287.0075,144.9975 19,0 c 2,0 3,1 3,2 l 0,19 c 0,1 -1,2 -3,2 l -19,0 c -1,0 -3,-1 -3,-2 l 0,-19 c 0,-1 2,-2 3,-2 z"
     id="path77"
     inkscape:connector-curvature="0" /><path
     style="fill:#97c5d5;fill-opacity:1;stroke:#202326;stroke-width:0"
     d="m 316.0075,144.9975 20,0 c 2,0 3,1 3,2 l 0,19 c 0,1 -1,2 -3,2 l -20,0 c -1,0 -3,-1 -3,-2 l 0,-19 c 0,-1 2,-2 3,-2 z"
     id="path79"
     inkscape:connector-curvature="0" /><path
     style="fill:#97c5d5;fill-opacity:1;stroke:#202326;stroke-width:0"
     d="m 346.0075,144.9975 20,0 c 2,0 3,1 3,2 l 0,19 c 0,1 -1,2 -3,2 l -20,0 c -1,0 -3,-1 -3,-2 l 0,-19 c 0,-1 2,-2 3,-2 z"
     id="path81"
     inkscape:connector-curvature="0" /><path
     style="fill:#97c5d5;fill-opacity:1;stroke:#202326;stroke-width:0"
     d="m 376.0075,144.9975 20,0 c 2,0 3,1 3,2 l 0,19 c 0,1 -1,2 -3,2 l -20,0 c -1,0 -3,-1 -3,-2 l 0,-19 c 0,-1 2,-2 3,-2 z"
     id="path83"
     inkscape:connector-curvature="0" /><path
     style="fill:#97c5d5;fill-opacity:1;stroke:#202326;stroke-width:0"
     d="m 405.0075,144.9975 20,0 c 2,0 3,1 3,2 l 0,19 c 0,1 -1,2 -3,2 l -20,0 c -1,0 -3,-1 -3,-2 l 0,-19 c 0,-1 2,-2 3,-2 z"
     id="path85"
     inkscape:connector-curvature="0" /><path
     style="fill:#97c5d5;stroke:#202326;stroke-width:0;fill-opacity:1"
     d="m 119.0075,169.9975 21,0 c 1,0 2,2 2,3 l 0,17 c 0,2 -1,3 -2,3 l -21,0 c -1,0 -2,-1 -2,-3 l 0,-17 c 0,-1 1,-3 2,-3 z"
     id="path87"
     inkscape:connector-curvature="0" /><path
     style="fill:#97c5d5;stroke:#202326;stroke-width:0;fill-opacity:1"
     d="m 149.0075,169.9975 21,0 c 1,0 2,2 2,3 l 0,17 c 0,2 -1,3 -2,3 l -21,0 c -1,0 -2,-1 -2,-3 l 0,-17 c 0,-1 1,-3 2,-3 z"
     id="path89"
     inkscape:connector-curvature="0" /><path
     style="fill:#97c5d5;stroke:#202326;stroke-width:0;fill-opacity:1"
     d="m 179.0075,169.9975 21,0 c 1,0 2,2 2,3 l 0,17 c 0,2 -1,3 -2,3 l -21,0 c -1,0 -2,-1 -2,-3 l 0,-17 c 0,-1 1,-3 2,-3 z"
     id="path91"
     inkscape:connector-curvature="0" /><path
     style="fill:#97c5d5;stroke:#202326;stroke-width:0;fill-opacity:1"
     d="m 239.0075,169.9975 20,0 c 1,0 2,2 2,3 l 0,17 c 0,2 -1,3 -2,3 l -20,0 c -2,0 -3,-1 -3,-3 l 0,-17 c 0,-1 1,-3 3,-3 z"
     id="path93"
     inkscape:connector-curvature="0" /><path
     style="fill:#97c5d5;stroke:#202326;stroke-width:0;fill-opacity:1"
     d="m 269.0075,169.9975 20,0 c 1,0 2,2 2,3 l 0,17 c 0,2 -1,3 -2,3 l -20,0 c -2,0 -3,-1 -3,-3 l 0,-17 c 0,-1 1,-3 3,-3 z"
     id="path95"
     inkscape:connector-curvature="0" /><path
     style="fill:#97c5d5;fill-opacity:1;stroke:#202326;stroke-width:0"
     d="m 299.0075,169.9975 19,0 c 1,0 2,2 2,3 l 0,17 c 0,2 -1,3 -2,3 l -19,0 c -2,0 -3,-1 -3,-3 l 0,-17 c 0,-1 1,-3 3,-3 z"
     id="path97"
     inkscape:connector-curvature="0" /><path
     style="fill:#97c5d5;fill-opacity:1;stroke:#202326;stroke-width:0"
     d="m 328.0075,169.9975 20,0 c 1,0 2,2 2,3 l 0,17 c 0,2 -1,3 -2,3 l -20,0 c -2,0 -3,-1 -3,-3 l 0,-17 c 0,-1 1,-3 3,-3 z"
     id="path99"
     inkscape:connector-curvature="0" /><path
     style="fill:#97c5d5;fill-opacity:1;stroke:#202326;stroke-width:0"
     d="m 358.0075,169.9975 20,0 c 1,0 2,2 2,3 l 0,17 c 0,2 -1,3 -2,3 l -20,0 c -2,0 -3,-1 -3,-3 l 0,-17 c 0,-1 1,-3 3,-3 z"
     id="path101"
     inkscape:connector-curvature="0" /><path
     style="fill:#97c5d5;stroke:#202326;stroke-width:0;fill-opacity:1"
     d="m 388.0075,169.9975 19,0 c 1,0 2,2 2,3 l 0,17 c 0,2 -1,3 -2,3 l -19,0 c -2,0 -3,-1 -3,-3 l 0,-17 c 0,-1 1,-3 3,-3 z"
     id="path103"
     inkscape:connector-curvature="0" /><path
     style="fill:#ffffff;stroke:#202326;stroke-width:0"
     d="m 53.007509,52.997497 20,0 c 1,0 3,1 3,3 l 0,18 c 0,1 -2,3 -3,3 l -20,0 c -2,0 -3,-2 -3,-3 l 0,-18 c 0,-2 1,-3 3,-3 z"
     id="path105"
     inkscape:connector-curvature="0" /><path
     style="fill:#edc07d;stroke:#202326;stroke-width:0"
     d="m 112.0075,52.997497 20,0 c 2,0 3,1 3,3 l 0,18 c 0,1 -1,3 -3,3 l -20,0 c -1,0 -2,-2 -2,-3 l 0,-18 c 0,-2 1,-3 2,-3 z"
     id="path107"
     inkscape:connector-curvature="0" /><path
     style="fill:#edc07d;stroke:#202326;stroke-width:0"
     d="m 142.0075,52.997497 20,0 c 2,0 3,1 3,3 l 0,18 c 0,1 -1,3 -3,3 l -20,0 c -2,0 -3,-2 -3,-3 l 0,-18 c 0,-2 1,-3 3,-3 z"
     id="path109"
     inkscape:connector-curvature="0" /><path
     style="fill:#edc07d;stroke:#202326;stroke-width:0"
     d="m 172.0075,52.997497 20,0 c 2,0 3,1 3,3 l 0,18 c 0,1 -1,3 -3,3 l -20,0 c -1,0 -3,-2 -3,-3 l 0,-18 c 0,-2 2,-3 3,-3 z"
     id="path111"
     inkscape:connector-curvature="0" /><path
     style="fill:#edc07d;stroke:#202326;stroke-width:0"
     d="m 202.0075,52.997497 19,0 c 2,0 3,1 3,3 l 0,18 c 0,1 -1,3 -3,3 l -19,0 c -1,0 -3,-2 -3,-3 l 0,-18 c 0,-2 2,-3 3,-3 z"
     id="path113"
     inkscape:connector-curvature="0" /><path
     style="fill:#edc07d;stroke:#202326;stroke-width:0"
     d="m 246.0075,51.997497 20,0 c 1,0 2,2 2,3 l 0,18 c 0,2 -1,3 -2,3 l -20,0 c -2,0 -3,-1 -3,-3 l 0,-18 c 0,-1 1,-3 3,-3 z"
     id="path115"
     inkscape:connector-curvature="0" /><path
     style="fill:#edc07d;stroke:#202326;stroke-width:0"
     d="m 276.0075,51.997497 20,0 c 1,0 2,2 2,3 l 0,18 c 0,2 -1,3 -2,3 l -20,0 c -2,0 -3,-1 -3,-3 l 0,-18 c 0,-1 1,-3 3,-3 z"
     id="path117"
     inkscape:connector-curvature="0" /><path
     style="fill:#edc07d;stroke:#202326;stroke-width:0"
     d="m 305.0075,51.997497 20,0 c 1,0 2,2 2,3 l 0,18 c 0,2 -1,3 -2,3 l -20,0 c -1,0 -2,-1 -2,-3 l 0,-18 c 0,-1 1,-3 2,-3 z"
     id="path119"
     inkscape:connector-curvature="0" /><path
     style="fill:#edc07d;stroke:#202326;stroke-width:0"
     d="m 335.0075,51.997497 20,0 c 1,0 2,2 2,3 l 0,18 c 0,2 -1,3 -2,3 l -20,0 c -2,0 -3,-1 -3,-3 l 0,-18 c 0,-1 1,-3 3,-3 z"
     id="path121"
     inkscape:connector-curvature="0" /><path
     style="fill:#edc07d;stroke:#202326;stroke-width:0"
     d="m 379.0075,51.997497 20,0 c 1,0 2,2 2,3 l 0,18 c 0,2 -1,3 -2,3 l -20,0 c -2,0 -3,-1 -3,-3 l 0,-18 c 0,-1 1,-3 3,-3 z"
     id="path123"
     inkscape:connector-curvature="0" /><path
     style="fill:#edc07d;stroke:#202326;stroke-width:0"
     d="m 408.0075,51.997497 20,0 c 1,0 2,2 2,3 l 0,18 c 0,2 -1,3 -2,3 l -20,0 c -2,0 -3,-1 -3,-3 l 0,-18 c 0,-1 1,-3 3,-3 z"
     id="path125"
     inkscape:connector-curvature="0" /><path
     style="fill:#edc07d;stroke:#202326;stroke-width:0"
     d="m 438.0075,51.997497 20,0 c 1,0 2,2 2,3 l 0,18 c 0,2 -1,3 -2,3 l -20,0 c -2,0 -3,-1 -3,-3 l 0,-18 c 0,-1 1,-3 3,-3 z"
     id="path127"
     inkscape:connector-curvature="0" /><path
     style="fill:#edc07d;stroke:#202326;stroke-width:0"
     d="m 468.0075,51.997497 20,0 c 1,0 2,2 2,3 l 0,18 c 0,2 -1,3 -2,3 l -20,0 c -2,0 -3,-1 -3,-3 l 0,-18 c 0,-1 1,-3 3,-3 z"
     id="path129"
     inkscape:connector-curvature="0" /><path
     style="fill:#97c5d5;stroke:#202326;stroke-width:0;fill-opacity:1"
     d="m 168.0075,194.9975 -11,0 c -2,0 -3,1 -3,3 l 0,18 c 0,2 1,3 3,3 l 11,0 168,0 18,0 c 0,0 1,-1 1,-3 l 0,-18 c 0,-2 -1,-3 -1,-3 l -18,0 -168,0 z"
     id="path185"
     inkscape:connector-curvature="0" /><path
     style="fill:#97c5d5;fill-opacity:1;stroke:#202326;stroke-width:0"
     d="m 397.0075,194.9975 19,0 c 1,0 2,1 2,3 l 0,18 c 0,2 -1,3 -2,3 l -19,0 c -2,0 -3,-1 -3,-3 l 0,-18 c 0,-2 1,-3 3,-3 z"
     id="path187"
     inkscape:connector-curvature="0" /><path
     style="fill:#97c5d5;fill-opacity:1;stroke:#202326;stroke-width:0"
     d="m 426.0075,194.9975 20,0 c 1,0 2,1 2,3 l 0,18 c 0,2 -1,3 -2,3 l -20,0 c -2,0 -3,-1 -3,-3 l 0,-18 c 0,-2 1,-3 3,-3 z"
     id="path189"
     inkscape:connector-curvature="0" /><path
     style="fill:#97c5d5;stroke:#202326;stroke-width:0;fill-opacity:1"
     d="m 208.0075,169.9975 21,0 c 1,0 2,2 2,3 l 0,17 c 0,2 -1,3 -2,3 l -21,0 c 0,0 -1,-1 -1,-3 l 0,-17 c 0,-1 1,-3 1,-3 z"
     id="path195"
     inkscape:connector-curvature="0" /><path
     style="fill:#97c5d5;stroke:#202326;stroke-width:0;fill-opacity:1"
     d="m 53.007509,142.9975 c -2,0 -3,-2 -3,-3 l 0,-18 c 0,-2 1,-3 3,-3 l 38,0 c 2,0 3,1 3,3 l 0,18 c 0,1 -1,3 -3,3 l -38,0 z"
     id="path197"
     inkscape:connector-curvature="0" /><path
     style="fill:#97c5d5;stroke:#202326;stroke-width:0;fill-opacity:1"
     d="m 53.007509,167.9975 c -1,0 -2.995656,-1.4324 -3,-2.43239 l -0.07862,-18.09591 c -0.0043,-0.99999 2.078616,-2.4717 3.078616,-2.4717 l 45,0 c 2.000001,0 4.000001,1 4.000001,2 l 0,19 c 0,1 -2,2 -4.000001,2 z"
     id="path199"
     inkscape:connector-curvature="0"
     sodipodi:nodetypes="sssssssss" /><text
     x="56.91959"
     y="67.048523"
     id="text469"
     style="font-weight:normal;font-size:6.96602964px;font-family:Arial;fill:#2b2828"
     transform="scale(1.0007154,0.99928512)">Esc</text>
<path
     style="fill:none;stroke:#2b2828;stroke-width:0"
     d="m 485.0075,103.9975 -11,0"
     id="path547"
     inkscape:connector-curvature="0" /><path
     style="fill:#97c5d5;stroke:#202326;stroke-width:0"
     d="m 416.0075,192.9975 c -1,0 -2,-1 -2,-3 l 0,-17 c 0,-1 1,-3 2,-3 l 73,0 c 2,0 3,2 3,3 l 0,17 c 0,2 -1,3 -3,3 l -73,0 z"
     id="path551"
     inkscape:connector-curvature="0" /><path
     style="fill:#f1efbe;stroke:#202326;stroke-width:0"
     d="m 452.0075,144.9975 -17,0 c -2,0 -3,1 -3,2 l 0,19 c 0,1 1,2 3,2 l 54,0 c 2,0 3,-1 3,-2 l 0,-44 c 0,-2 -1,-3 -3,-3 l -31,0 c -2,0 -3,1 -3,3 l 0,20 c 0,2 0,3 -3,3 l 0,0 z"
     id="path553"
     inkscape:connector-curvature="0" /><path
     style="fill:none;stroke:#2b2828;stroke-width:0"
     d="m 473.0075,126.9975 0,11 -10,0"
     id="path555"
     inkscape:connector-curvature="0" /><path
     style="fill:#97c5d5;stroke:#202326;stroke-width:0"
     d="m 456.0075,194.9975 33,0 c 2,0 3,1 3,3 l 0,18 c 0,2 -1,3 -3,3 l -33,0 c -2,0 -3,-1 -3,-3 l 0,-18 c 0,-2 1,-3 3,-3 z"
     id="path559"
     inkscape:connector-curvature="0" /><path
     style="fill:#97c5d5;stroke:#202326;stroke-width:0;fill-opacity:1"
     d="m 51.687309,192.9975 c -0.559934,0 -1.679801,-1 -1.679801,-3 0,-5 0,-11 0,-17 0,-1 1.119867,-3 1.679801,-3 8.399007,0 22.957287,0 31.916228,0 0.559934,0 1.119867,2 1.119867,3 0,6 0,12 0,17 0,2 -0.559933,3 -1.119867,3 -8.958941,0 -23.517221,0 -31.916228,0 z"
     id="path561"
     inkscape:connector-curvature="0" /><path
     style="fill:#97c5d5;stroke:#202326;stroke-width:0;fill-opacity:1"
     d="m 53.007509,194.9975 30,0 c 1,0 2,1 2,3 l 0,18 c 0,2 -1,3 -2,3 l -30,0 c -2,0 -3,-1 -3,-3 l 0,-18 c 0,-2 1,-3 3,-3 z"
     id="path563"
     inkscape:connector-curvature="0" /><path
     style="fill:#97c5d5;fill-opacity:1;stroke:#202326;stroke-width:0"
     d="m 93.007509,194.9975 18.999991,0 c 2,0 3,1 3,3 l 0,18 c 0,1 -1,3 -3,3 l -18.999991,0 c -1,0 -3,-2 -3,-3 l 0,-18 c 0,-2 2,-3 3,-3 z"
     id="path565"
     inkscape:connector-curvature="0" /><path
     style="fill:#97c5d5;stroke:#202326;stroke-width:0;fill-opacity:1"
     d="m 122.0075,194.9975 25,0 c 1,0 2,1 2,3 l 0,18 c 0,1 -1,3 -2,3 l -25,0 c -1,0 -2,-2 -2,-3 l 0,-18 c 0,-2 1,-3 2,-3 z"
     id="path567"
     inkscape:connector-curvature="0" /><path
     style="fill:#97c5d5;stroke:#2b2828;stroke-width:0;fill-opacity:1"
     d="m 60.007509,174.9975 -4,4 2,0 0,8 5,0 0,-8 2,0 -5,-4 z"
     id="path625"
     inkscape:connector-curvature="0" /><path
     style="fill:#97c5d5;stroke:#2b2828;stroke-width:0;fill-opacity:1"
     d="m 423.0075,174.9975 -4,4 2,0 0,8 4,0 0,-8 2,0 -4,-4 z"
     id="path631"
     inkscape:connector-curvature="0" /><path
     style="fill:#97c5d5;stroke:#202326;stroke-width:0"
     d="m 62.972467,266.9825 20.000006,0 c 1,0 2,1 2,3 l 0,18 c 0,1 -1,3 -2,3 l -20.000006,0 c -1,0 -3,-2 -3,-3 l 0,-18 c 0,-2 2,-3 3,-3 z"
     id="path781"
     inkscape:connector-curvature="0" /><path
     style="fill:#e8a8a5;stroke:#202326;stroke-width:0"
     d="m 62.972467,297.9825 20.000006,0 c 1,0 2,1 2,3 l 0,18 c 0,1 -1,3 -2,3 l -20.000006,0 c -1,0 -3,-2 -3,-3 l 0,-18 c 0,-2 2,-3 3,-3 z"
     id="path783"
     inkscape:connector-curvature="0" /><path
     style="fill:#a97ca9;stroke:#202326;stroke-width:0"
     d="m 62.972467,328.9825 20.000006,0 c 1,0 2,1 2,2 l 0,18 c 0,1 -1,2 -2,2 l -20.000006,0 c -1,0 -3,-1 -3,-2 l 0,-18 c 0,-1 2,-2 3,-2 z"
     id="path785"
     inkscape:connector-curvature="0" /><text
     x="91.213028"
     y="284.47723"
     id="text789"
     style="font-weight:normal;font-size:13.93205929px;font-family:Arial;fill:#2b2828"
     transform="scale(1.0007154,0.99928512)">Typewriter keys</text>
<text
     x="91.213028"
     y="315.13715"
     id="text793"
     style="font-weight:normal;font-size:13.93205929px;font-family:Arial;fill:#2b2828"
     transform="scale(1.0007154,0.99928512)">System keys</text>
<text
     x="91.213028"
     y="345.79706"
     id="text797"
     style="font-weight:normal;font-size:13.93205929px;font-family:Arial;fill:#2b2828"
     transform="scale(1.0007154,0.99928512)">Mouse keys</text>
<path
     style="fill:#edc07d;stroke:#202326;stroke-width:0"
     d="m 225.97249,266.9825 20,0 c 2,0 3,1 3,3 l 0,18 c 0,1 -1,3 -3,3 l -20,0 c -2,0 -3,-2 -3,-3 l 0,-18 c 0,-2 1,-3 3,-3 z"
     id="path799"
     inkscape:connector-curvature="0" /><path
     style="fill:#f1efbe;stroke:#202326;stroke-width:0;fill-opacity:1"
     d="m 225.97249,297.9825 20,0 c 2,0 3,1 3,3 l 0,18 c 0,1 -1,3 -3,3 l -20,0 c -2,0 -3,-2 -3,-3 l 0,-18 c 0,-2 1,-3 3,-3 z"
     id="path801"
     inkscape:connector-curvature="0" /><path
     style="fill:#a8d1b1;stroke:#202326;stroke-width:0"
     d="m 225.97249,328.9825 20,0 c 2,0 3,1 3,2 l 0,18 c 0,1 -1,2 -3,2 l -20,0 c -2,0 -3,-1 -3,-2 l 0,-18 c 0,-1 1,-2 3,-2 z"
     id="path803"
     inkscape:connector-curvature="0" /><text
     x="254.401"
     y="284.47723"
     id="text807"
     style="font-weight:normal;font-size:13.93205929px;font-family:Arial;fill:#2b2828"
     transform="scale(1.0007154,0.99928512)">Function keys</text>
<text
     x="284.41702"
     y="345.79706"
     id="text815"
     style="font-weight:normal;font-size:13.93205929px;font-family:Arial;fill:#2b2828"
     transform="scale(1.0007154,0.99928512)">Navigation/ cursor keys</text>
<text
     x="254.44182"
     y="315.29691"
     id="text823"
     style="font-weight:normal;font-size:13.93205929px;font-family:Arial;fill:#2b2828"
     transform="scale(1.0007154,0.99928512)">Enter keys</text>
<path
     style="fill:#e8a8a5;stroke:#202326;stroke-width:0;fill-opacity:1"
     d="m 362.0075,194.9975 24,0 c 1,0 2,1 2,3 l 0,18 c 0,1 -1,3 -2,3 l -24,0 c -1,0 -2,-2 -2,-3 l 0,-18 c 0,-2 1,-3 2,-3 z"
     id="path865"
     inkscape:connector-curvature="0" /><path
     style="fill:#97c5d5;fill-rule:evenodd;stroke:#000000;stroke-width:0.97857505px;stroke-linecap:butt;stroke-linejoin:miter;stroke-opacity:1;fill-opacity:1"
     d="m 294.05416,164.21527 4.90667,0"
     id="path15305-5-7"
     inkscape:connector-curvature="0" /><path
     inkscape:connector-curvature="0"
     id="path17293"
     d="m 205.05416,164.21527 4.90667,0"
     style="fill:#97c5d5;fill-opacity:1;fill-rule:evenodd;stroke:#000000;stroke-width:0.97857505px;stroke-linecap:butt;stroke-linejoin:miter;stroke-opacity:1" /><path
     inkscape:connector-curvature="0"
     style="fill:#6cc780;fill-opacity:1;fill-rule:evenodd;stroke:#202326;stroke-width:0"
     d="m 256.47915,328.9825 20,0 c 2,0 3,1 3,2 l 0,18 c 0,1 -1,2 -3,2 l -20,0 c -2,0 -3,-1 -3,-2 l 0,-18 c 0,-1 1,-2 3,-2 z"
     id="path803-7" /><path
     inkscape:connector-curvature="0"
     style="fill:#97c5d5;fill-rule:evenodd;stroke:#202326;stroke-width:0;fill-opacity:1"
     d="m 90.000627,169.9975 20.999983,0 c 1.00001,0 2.00001,2 2.00001,3 l 0,17 c 0,2 -1,3 -2.00001,3 l -20.999983,0 c -1,0 -2,-1 -2,-3 l 0,-17 c 0,-1 1,-3 2,-3 z"
     id="path87-4" /><text
     xml:space="preserve"
     style="font-style:normal;font-weight:normal;font-size:13.94687176px;line-height:125%;font-family:sans-serif;letter-spacing:0px;word-spacing:0px;fill:#000000;fill-opacity:1;stroke:none;stroke-width:1px;stroke-linecap:butt;stroke-linejoin:miter;stroke-opacity:1"
     x="261.25305"
     y="158.93512"
     id="text5070"
     sodipodi:linespacing="125%"><tspan
       sodipodi:role="line"
       id="tspan5072"
       x="261.25305"
       y="158.93512">&gt;</tspan></text>
<text
     xml:space="preserve"
     style="font-style:normal;font-weight:normal;font-size:13.94687176px;line-height:125%;font-family:sans-serif;letter-spacing:0px;word-spacing:0px;fill:#000000;fill-opacity:1;fill-rule:evenodd;stroke:none;stroke-width:1px;stroke-linecap:butt;stroke-linejoin:miter;stroke-opacity:1"
     x="293.45663"
     y="158.39032"
     id="text5070-3"
     sodipodi:linespacing="125%"><tspan
       sodipodi:role="line"
       id="tspan5072-9"
       x="293.45663"
       y="158.39032">)</tspan></text>
<text
     xml:space="preserve"
     style="font-style:normal;font-weight:normal;font-size:13.94687176px;line-height:125%;font-family:sans-serif;letter-spacing:0px;word-spacing:0px;fill:#000000;fill-opacity:1;fill-rule:evenodd;stroke:none;stroke-width:1px;stroke-linecap:butt;stroke-linejoin:miter;stroke-opacity:1"
     x="321.53333"
     y="158.45842"
     id="text5070-6"
     sodipodi:linespacing="125%"><tspan
       sodipodi:role="line"
       id="tspan5072-4"
       x="321.53333"
       y="158.45842">}</tspan></text>
<text
     xml:space="preserve"
     style="font-style:normal;font-weight:normal;font-size:13.94687176px;line-height:125%;font-family:sans-serif;letter-spacing:0px;word-spacing:0px;fill:#000000;fill-opacity:1;fill-rule:evenodd;stroke:none;stroke-width:1px;stroke-linecap:butt;stroke-linejoin:miter;stroke-opacity:1"
     x="353.07239"
     y="158.45842"
     id="text5070-4"
     sodipodi:linespacing="125%"><tspan
       sodipodi:role="line"
       id="tspan5072-2"
       x="353.07239"
       y="158.45842">]</tspan></text>
<text
     xml:space="preserve"
     style="font-style:normal;font-weight:normal;font-size:13.94687176px;line-height:125%;font-family:sans-serif;letter-spacing:0px;word-spacing:0px;fill:#000000;fill-opacity:1;fill-rule:evenodd;stroke:none;stroke-width:1px;stroke-linecap:butt;stroke-linejoin:miter;stroke-opacity:1"
     x="380.30072"
     y="158.93512"
     id="text5070-0"
     sodipodi:linespacing="125%"><tspan
       sodipodi:role="line"
       id="tspan5072-8"
       x="380.30072"
       y="158.93512">=</tspan></text>
<text
     xml:space="preserve"
     style="font-style:normal;font-weight:normal;font-size:13.94687176px;line-height:125%;font-family:sans-serif;letter-spacing:0px;word-spacing:0px;fill:#000000;fill-opacity:1;fill-rule:evenodd;stroke:none;stroke-width:1px;stroke-linecap:butt;stroke-linejoin:miter;stroke-opacity:1"
     x="231.34839"
     y="158.93512"
     id="text5070-01"
     sodipodi:linespacing="125%"><tspan
       sodipodi:role="line"
       id="tspan5072-3"
       x="231.34839"
       y="158.93512">&lt;</tspan></text>
<text
     xml:space="preserve"
     style="font-style:normal;font-weight:normal;font-size:13.94687176px;line-height:125%;font-family:sans-serif;letter-spacing:0px;word-spacing:0px;fill:#000000;fill-opacity:1;fill-rule:evenodd;stroke:none;stroke-width:1px;stroke-linecap:butt;stroke-linejoin:miter;stroke-opacity:1"
     x="204.22508"
     y="158.39032"
     id="text5070-9"
     sodipodi:linespacing="125%"><tspan
       sodipodi:role="line"
       id="tspan5072-0"
       x="204.22508"
       y="158.39032">(</tspan></text>
<text
     xml:space="preserve"
     style="font-style:normal;font-weight:normal;font-size:13.94687176px;line-height:125%;font-family:sans-serif;letter-spacing:0px;word-spacing:0px;fill:#000000;fill-opacity:1;fill-rule:evenodd;stroke:none;stroke-width:1px;stroke-linecap:butt;stroke-linejoin:miter;stroke-opacity:1"
     x="173.62868"
     y="158.45842"
     id="text5070-37"
     sodipodi:linespacing="125%"><tspan
       sodipodi:role="line"
       id="tspan5072-1"
       x="173.62868"
       y="158.45842">{</tspan></text>
<text
     xml:space="preserve"
     style="font-style:normal;font-weight:normal;font-size:13.94687176px;line-height:125%;font-family:sans-serif;letter-spacing:0px;word-spacing:0px;fill:#000000;fill-opacity:1;fill-rule:evenodd;stroke:none;stroke-width:1px;stroke-linecap:butt;stroke-linejoin:miter;stroke-opacity:1"
     x="144.60931"
     y="158.45842"
     id="text5070-7"
     sodipodi:linespacing="125%"><tspan
       sodipodi:role="line"
       id="tspan5072-85"
       x="144.60931"
       y="158.45842">[</tspan></text>
<text
     xml:space="preserve"
     style="font-style:normal;font-weight:normal;font-size:13.94687176px;line-height:125%;font-family:sans-serif;letter-spacing:0px;word-spacing:0px;fill:#000000;fill-opacity:1;fill-rule:evenodd;stroke:none;stroke-width:1px;stroke-linecap:butt;stroke-linejoin:miter;stroke-opacity:1"
     x="112.80072"
     y="158.93512"
     id="text5070-5"
     sodipodi:linespacing="125%"><tspan
       sodipodi:role="line"
       id="tspan5072-90"
       x="112.80072"
       y="158.93512">+</tspan></text>
<text
     xml:space="preserve"
     style="font-style:normal;font-weight:normal;font-size:13.94687176px;line-height:125%;font-family:sans-serif;letter-spacing:0px;word-spacing:0px;fill:#000000;fill-opacity:1;fill-rule:evenodd;stroke:none;stroke-width:1px;stroke-linecap:butt;stroke-linejoin:miter;stroke-opacity:1"
     x="107.76308"
     y="134.06503"
     id="text5070-92"
     sodipodi:linespacing="125%"><tspan
       sodipodi:role="line"
       id="tspan5072-6"
       x="107.76308"
       y="134.06503">!</tspan></text>
<text
     xml:space="preserve"
     style="font-style:normal;font-weight:normal;font-size:13.94687176px;line-height:125%;font-family:sans-serif;letter-spacing:0px;word-spacing:0px;fill:#000000;fill-opacity:1;fill-rule:evenodd;stroke:none;stroke-width:1px;stroke-linecap:butt;stroke-linejoin:miter;stroke-opacity:1"
     x="136.80681"
     y="137.61986"
     id="text5070-98"
     sodipodi:linespacing="125%"><tspan
       sodipodi:role="line"
       id="tspan5072-7"
       x="136.80681"
       y="137.61986">&quot;</tspan></text>
<text
     xml:space="preserve"
     style="font-style:normal;font-weight:normal;font-size:13.94687176px;line-height:125%;font-family:sans-serif;letter-spacing:0px;word-spacing:0px;fill:#000000;fill-opacity:1;fill-rule:evenodd;stroke:none;stroke-width:1px;stroke-linecap:butt;stroke-linejoin:miter;stroke-opacity:1"
     x="165.58101"
     y="134.16379"
     id="text5070-57"
     sodipodi:linespacing="125%"><tspan
       sodipodi:role="line"
       id="tspan5072-79"
       x="165.58101"
       y="134.16379">£</tspan></text>
<text
     xml:space="preserve"
     style="font-style:normal;font-weight:normal;font-size:13.94687176px;line-height:125%;font-family:sans-serif;letter-spacing:0px;word-spacing:0px;fill:#000000;fill-opacity:1;fill-rule:evenodd;stroke:none;stroke-width:1px;stroke-linecap:butt;stroke-linejoin:miter;stroke-opacity:1"
     x="195.02992"
     y="133.13206"
     id="text5070-8"
     sodipodi:linespacing="125%"><tspan
       sodipodi:role="line"
       id="tspan5072-28"
       x="195.02992"
       y="133.13206">$</tspan></text>
<text
     xml:space="preserve"
     style="font-style:normal;font-weight:normal;font-size:13.94687176px;line-height:125%;font-family:sans-serif;letter-spacing:0px;word-spacing:0px;fill:#000000;fill-opacity:1;fill-rule:evenodd;stroke:none;stroke-width:1px;stroke-linecap:butt;stroke-linejoin:miter;stroke-opacity:1"
     x="222.00288"
     y="134.06163"
     id="text5070-05"
     sodipodi:linespacing="125%"><tspan
       sodipodi:role="line"
       id="tspan5072-5"
       x="222.00288"
       y="134.06163">%</tspan></text>
<text
     xml:space="preserve"
     style="font-style:normal;font-weight:normal;font-size:13.94687176px;line-height:125%;font-family:sans-serif;letter-spacing:0px;word-spacing:0px;fill:#000000;fill-opacity:1;fill-rule:evenodd;stroke:none;stroke-width:1px;stroke-linecap:butt;stroke-linejoin:miter;stroke-opacity:1"
     x="253.80072"
     y="132.38223"
     id="text5070-2"
     sodipodi:linespacing="125%"><tspan
       sodipodi:role="line"
       id="tspan5072-20"
       x="253.80072"
       y="132.38223">^</tspan></text>
<text
     xml:space="preserve"
     style="font-style:normal;font-weight:normal;font-size:13.94687176px;line-height:125%;font-family:sans-serif;letter-spacing:0px;word-spacing:0px;fill:#000000;fill-opacity:1;fill-rule:evenodd;stroke:none;stroke-width:1px;stroke-linecap:butt;stroke-linejoin:miter;stroke-opacity:1"
     x="283.82117"
     y="134.06503"
     id="text5070-377"
     sodipodi:linespacing="125%"><tspan
       sodipodi:role="line"
       id="tspan5072-99"
       x="283.82117"
       y="134.06503">&amp;</tspan></text>
<text
     xml:space="preserve"
     style="font-style:normal;font-weight:normal;font-size:13.94687176px;line-height:125%;font-family:sans-serif;letter-spacing:0px;word-spacing:0px;fill:#000000;fill-opacity:1;fill-rule:evenodd;stroke:none;stroke-width:1px;stroke-linecap:butt;stroke-linejoin:miter;stroke-opacity:1"
     x="314.06738"
     y="132.43332"
     id="text5070-73"
     sodipodi:linespacing="125%"><tspan
       sodipodi:role="line"
       id="tspan5072-26"
       x="314.06738"
       y="132.43332">*</tspan></text>
<text
     xml:space="preserve"
     style="font-style:normal;font-weight:normal;font-size:13.94687176px;line-height:125%;font-family:sans-serif;letter-spacing:0px;word-spacing:0px;fill:#000000;fill-opacity:1;fill-rule:evenodd;stroke:none;stroke-width:1px;stroke-linecap:butt;stroke-linejoin:miter;stroke-opacity:1"
     x="344.07419"
     y="133.36812"
     id="text5070-39"
     sodipodi:linespacing="125%"><tspan
       sodipodi:role="line"
       id="tspan5072-56"
       x="344.07419"
       y="133.36812">_</tspan></text>
<text
     xml:space="preserve"
     style="font-style:normal;font-weight:normal;font-size:13.94687176px;line-height:125%;font-family:sans-serif;letter-spacing:0px;word-spacing:0px;fill:#000000;fill-opacity:1;fill-rule:evenodd;stroke:none;stroke-width:1px;stroke-linecap:butt;stroke-linejoin:miter;stroke-opacity:1"
     x="374.07419"
     y="133.36812"
     id="text5070-77"
     sodipodi:linespacing="125%"><tspan
       sodipodi:role="line"
       id="tspan5072-84"
       x="374.07419"
       y="133.36812">_</tspan></text>
<text
     xml:space="preserve"
     style="font-style:normal;font-weight:normal;font-size:17.43358994px;line-height:125%;font-family:sans-serif;letter-spacing:0px;word-spacing:0px;fill:#000000;fill-opacity:1;fill-rule:evenodd;stroke:none;stroke-width:1px;stroke-linecap:butt;stroke-linejoin:miter;stroke-opacity:1"
     x="397.9552"
     y="137.18402"
     id="text5070-0-7"
     sodipodi:linespacing="125%"><tspan
       sodipodi:role="line"
       id="tspan5072-8-0"
       x="397.9552"
       y="137.18402" /></text>
<text
     xml:space="preserve"
     style="font-style:normal;font-weight:normal;font-size:17.43358994px;line-height:125%;font-family:sans-serif;letter-spacing:0px;word-spacing:0px;fill:#000000;fill-opacity:1;fill-rule:evenodd;stroke:none;stroke-width:1px;stroke-linecap:butt;stroke-linejoin:miter;stroke-opacity:1"
     x="402.08575"
     y="163.91071"
     id="text5070-0-9"
     sodipodi:linespacing="125%"><tspan
       sodipodi:role="line"
       id="tspan5072-8-2"
       x="402.08575"
       y="163.91071" /></text>
<text
     xml:space="preserve"
     style="font-style:normal;font-weight:normal;font-size:13.94687176px;line-height:125%;font-family:sans-serif;letter-spacing:0px;word-spacing:0px;fill:#000000;fill-opacity:1;fill-rule:evenodd;stroke:none;stroke-width:1px;stroke-linecap:butt;stroke-linejoin:miter;stroke-opacity:1"
     x="411.84085"
     y="158.93172"
     id="text5070-0-3"
     sodipodi:linespacing="125%"><tspan
       sodipodi:role="line"
       id="tspan5072-8-1"
       x="411.84085"
       y="158.93172">-</tspan></text>
<text
     xml:space="preserve"
     style="font-style:normal;font-weight:normal;font-size:8.77912235px;line-height:125%;font-family:sans-serif;letter-spacing:0px;word-spacing:0px;fill:#000000;fill-opacity:1;fill-rule:evenodd;stroke:none;stroke-width:1px;stroke-linecap:butt;stroke-linejoin:miter;stroke-opacity:1"
     x="362.73352"
     y="210.27039"
     id="text5070-0-0"
     sodipodi:linespacing="125%"><tspan
       sodipodi:role="line"
       id="tspan5072-8-9"
       x="362.73352"
       y="210.27039">AltGr</tspan></text>
</svg>